{
  "name": "web",
  "version": "0.0.1",
  "playerShipsCount": 10,
  "playerShips": [
    [true, 1, true, false],
    [true, 2, true, false],
    [true, 1, true, false],
    [true, 2, true, false],
    [true, 1, true, false],
    [true, 2, true, false],
    [true, 1, true, false],
    [true, 2, true, false],
    [true, 1, true, false],
    [true, 2, true, false]
  ],
  "enemyShipsCount": 12,
  "enemyShips": [
    [false, 1, true, false],
    [false, 2, true, false],
    [false, 2, true, false],
    [false, 1, true, false],
    [false, 2, true, false],
    [false, 2, true, false],
    [false, 1, true, false],
    [false, 2, true, false],
    [false, 2, true, false],
    [false, 2, true, false],
    [false, 1, true, false],
    [false, 2, true, false]
  ],
  "playerItemsCount" : 3,
  "playerItems": [
    [2,1],
    [2,2],
    [4,3]
  ],
  "enemyItemsCount" : 3,
  "enemyItems": [
    [2,1],
    [2,2],
    [4,3]
  ]
}
